{
	"info": {
		"_postman_id": "c3ba25da-74b6-4ebc-8816-01fbb9affbc3",
		"name": "Cocktail Magician",
		"schema": "https://schema.getpostman.com/json/collection/v2.1.0/collection.json"
	},
	"item": [
		{
			"name": "Login",
			"request": {
				"method": "POST",
				"header": [],
				"body": {
					"mode": "raw",
					"raw": "{\r\n    \"username\": \"admin\",\r\n    \"password\": \"admin\"\r\n}",
					"options": {
						"raw": {
							"language": "json"
						}
					}
				},
				"url": {
					"raw": "http://localhost:5000/users/login",
					"protocol": "http",
					"host": [
						"localhost"
					],
					"port": "5000",
					"path": [
						"users",
						"login"
					]
				},
				"description": "Login user. Requires existing username and valid password."
			},
			"response": []
		},
		{
			"name": "Register User",
			"request": {
				"method": "POST",
				"header": [],
				"body": {
					"mode": "raw",
					"raw": "{\r\n    \"username\": \"goshko.petrov\",\r\n    \"password\": \"asd123\"\r\n}",
					"options": {
						"raw": {
							"language": "json"
						}
					}
				},
				"url": {
					"raw": "http://localhost:5000/users",
					"protocol": "http",
					"host": [
						"localhost"
					],
					"port": "5000",
					"path": [
						"users"
					]
				},
				"description": "- Username should be unique\n- username and password must be in range [3..30]"
			},
			"response": []
		},
		{
			"name": "Update User",
			"request": {
				"method": "PUT",
				"header": [],
				"body": {
					"mode": "raw",
					"raw": "{\r\n    \"displayName\": \"adminkata\"\r\n}",
					"options": {
						"raw": {
							"language": "json"
						}
					}
				},
				"url": {
					"raw": "http://localhost:5000/users",
					"protocol": "http",
					"host": [
						"localhost"
					],
					"port": "5000",
					"path": [
						"users"
					]
				},
				"description": "- only displayName can be changed\n- validation: [3..30] length"
			},
			"response": []
		},
		{
			"name": "User Info (Me)",
			"protocolProfileBehavior": {
				"disableBodyPruning": true
			},
			"request": {
				"method": "GET",
				"header": [],
				"body": {
					"mode": "raw",
					"raw": "",
					"options": {
						"raw": {
							"language": "json"
						}
					}
				},
				"url": {
					"raw": "http://localhost:5000/users/me",
					"protocol": "http",
					"host": [
						"localhost"
					],
					"port": "5000",
					"path": [
						"users",
						"me"
					]
				},
				"description": "Returns user details in exchange for valid token"
			},
			"response": []
		},
		{
			"name": "Get User by Id",
			"protocolProfileBehavior": {
				"disableBodyPruning": true
			},
			"request": {
				"auth": {
					"type": "noauth"
				},
				"method": "GET",
				"header": [],
				"body": {
					"mode": "raw",
					"raw": "",
					"options": {
						"raw": {
							"language": "json"
						}
					}
				},
				"url": {
					"raw": "http://localhost:5000/users/1",
					"protocol": "http",
					"host": [
						"localhost"
					],
					"port": "5000",
					"path": [
						"users",
						"1"
					]
				},
				"description": "- Does not require authentication\n- Returns detailed user information for existing `userId`"
			},
			"response": []
		},
		{
			"name": "Search Bars By Name",
			"protocolProfileBehavior": {
				"disableBodyPruning": true
			},
			"request": {
				"auth": {
					"type": "noauth"
				},
				"method": "GET",
				"header": [],
				"body": {
					"mode": "raw",
					"raw": "",
					"options": {
						"raw": {
							"language": "json"
						}
					}
				},
				"url": {
					"raw": "http://localhost:5000/bars?name=kry",
					"protocol": "http",
					"host": [
						"localhost"
					],
					"port": "5000",
					"path": [
						"bars"
					],
					"query": [
						{
							"key": "name",
							"value": "kry"
						}
					]
				},
				"description": "- Returns all bars\n- if query param `name` is present, returns filtered collection of bars"
			},
			"response": []
		},
		{
			"name": "Search Bars By Cocktail Ingredients",
			"protocolProfileBehavior": {
				"disableBodyPruning": true
			},
			"request": {
				"auth": {
					"type": "noauth"
				},
				"method": "GET",
				"header": [],
				"body": {
					"mode": "raw",
					"raw": "",
					"options": {
						"raw": {
							"language": "json"
						}
					}
				},
				"url": {
					"raw": "http://localhost:5000/bars/cocktail-ingredients?values=grenadine&values=limonche",
					"protocol": "http",
					"host": [
						"localhost"
					],
					"port": "5000",
					"path": [
						"bars",
						"cocktail-ingredients"
					],
					"query": [
						{
							"key": "values",
							"value": "grenadine"
						},
						{
							"key": "values",
							"value": "limonche"
						}
					]
				},
				"description": "- Returns all bars that have a cocktail that contains one of the ingredients\n- Bars and cocktail will be duplicate, if one ingredient is contained in multiple cocktails"
			},
			"response": []
		},
		{
			"name": "Bar Details",
			"protocolProfileBehavior": {
				"disableBodyPruning": true
			},
			"request": {
				"auth": {
					"type": "noauth"
				},
				"method": "GET",
				"header": [],
				"body": {
					"mode": "raw",
					"raw": "",
					"options": {
						"raw": {
							"language": "json"
						}
					}
				},
				"url": {
					"raw": "http://localhost:5000/bars/1",
					"protocol": "http",
					"host": [
						"localhost"
					],
					"port": "5000",
					"path": [
						"bars",
						"1"
					]
				},
				"description": "Returns detailed bar information for bar given `barId`"
			},
			"response": []
		},
		{
			"name": "Bar Reviews",
			"protocolProfileBehavior": {
				"disableBodyPruning": true
			},
			"request": {
				"method": "GET",
				"header": [],
				"body": {
					"mode": "raw",
					"raw": "",
					"options": {
						"raw": {
							"language": "json"
						}
					}
				},
				"url": {
					"raw": "http://localhost:5000/bars/4/reviews",
					"protocol": "http",
					"host": [
						"localhost"
					],
					"port": "5000",
					"path": [
						"bars",
						"4",
						"reviews"
					]
				},
				"description": "Returns all reviews for bar with given `barId`"
			},
			"response": []
		},
		{
			"name": "Create Bar (Magician)",
			"request": {
				"method": "POST",
				"header": [],
				"body": {
					"mode": "formdata",
					"formdata": [
						{
							"key": "name",
							"value": "barcheto <333",
							"type": "text"
						},
						{
							"key": "phone",
							"value": "1928391283",
							"type": "text"
						},
						{
							"key": "address",
							"value": "lomsko shose",
							"type": "text"
						},
						{
							"key": "images",
							"type": "file",
							"src": "/D:/img/js.jpg"
						},
						{
							"key": "images",
							"type": "file",
							"src": "/D:/img/csharp.png"
						}
					]
				},
				"url": {
					"raw": "http://localhost:5000/bars",
					"protocol": "http",
					"host": [
						"localhost"
					],
					"port": "5000",
					"path": [
						"bars"
					]
				},
				"description": "- magician only endpoint\n- bar name must be unique\n- phone and address are required\n- can upload **multiple** images at once\n     - at least one image is required"
			},
			"response": []
		},
		{
			"name": "Upload Additional Bar Image (Magician)",
			"request": {
				"method": "POST",
				"header": [],
				"body": {
					"mode": "formdata",
					"formdata": [
						{
							"key": "image",
							"type": "file",
							"src": "/D:/img/js.jpg"
						}
					]
				},
				"url": {
					"raw": "http://localhost:5000/bars/4/images",
					"protocol": "http",
					"host": [
						"localhost"
					],
					"port": "5000",
					"path": [
						"bars",
						"4",
						"images"
					]
				},
				"description": "Uploads additional image for a bar with given `barId`"
			},
			"response": []
		},
		{
			"name": "Set Bar Cover Image (Magician)",
			"request": {
				"method": "PUT",
				"header": [],
				"body": {
					"mode": "formdata",
					"formdata": []
				},
				"url": {
					"raw": "http://localhost:5000/bars/4/images/5/cover",
					"protocol": "http",
					"host": [
						"localhost"
					],
					"port": "5000",
					"path": [
						"bars",
						"4",
						"images",
						"5",
						"cover"
					]
				},
				"description": "- sets the cover image of bar with given `barId` as the image `imageId`\n- if the image is hidden, it will be visible again"
			},
			"response": []
		},
		{
			"name": "Toggle Bar Image Visibility (Magician)",
			"request": {
				"method": "PUT",
				"header": [],
				"body": {
					"mode": "raw",
					"raw": "{\r\n    \"action\": \"hide\"\r\n}",
					"options": {
						"raw": {
							"language": "json"
						}
					}
				},
				"url": {
					"raw": "http://localhost:5000/bars/4/images/7",
					"protocol": "http",
					"host": [
						"localhost"
					],
					"port": "5000",
					"path": [
						"bars",
						"4",
						"images",
						"7"
					]
				},
				"description": "- shows/hides specific bar image\n- no effect on cover image"
			},
			"response": []
		},
		{
			"name": "Update Bar (Magician)",
			"request": {
				"method": "PUT",
				"header": [],
				"body": {
					"mode": "raw",
					"raw": "{\r\n    \"name\": \"<3 barcheto\",\r\n    \"phone\": \"10919882398\",\r\n    \"address\": \"lomsko shose\"\r\n}",
					"options": {
						"raw": {
							"language": "json"
						}
					}
				},
				"url": {
					"raw": "http://localhost:5000/bars/4",
					"protocol": "http",
					"host": [
						"localhost"
					],
					"port": "5000",
					"path": [
						"bars",
						"4"
					]
				},
				"description": "- Updates bar information\n- All three fields are optional, but must follow validation rules if present in request body"
			},
			"response": []
		},
		{
			"name": "Add Cocktail To Bar (Magician)",
			"request": {
				"method": "PUT",
				"header": [],
				"body": {
					"mode": "raw",
					"raw": "",
					"options": {
						"raw": {
							"language": "json"
						}
					}
				},
				"url": {
					"raw": "http://localhost:5000/bars/3/cocktails/1",
					"protocol": "http",
					"host": [
						"localhost"
					],
					"port": "5000",
					"path": [
						"bars",
						"3",
						"cocktails",
						"1"
					]
				},
				"description": "- bar `barId` starts to offer cocktail `cocktailId`\n- does nothing if that bar already offers the cocktail\n- returns 204 status code"
			},
			"response": []
		},
		{
			"name": "Remove Cocktail From Bar (Magician)",
			"request": {
				"method": "DELETE",
				"header": [],
				"body": {
					"mode": "raw",
					"raw": "",
					"options": {
						"raw": {
							"language": "json"
						}
					}
				},
				"url": {
					"raw": "http://localhost:5000/bars/3/cocktails/2",
					"protocol": "http",
					"host": [
						"localhost"
					],
					"port": "5000",
					"path": [
						"bars",
						"3",
						"cocktails",
						"2"
					]
				},
				"description": "- bar `barId` starts no longer offers cocktail `cocktailId`\n- does nothing if that bar already does not offer the cocktail \n- returns 204 status code"
			},
			"response": []
		},
		{
			"name": "Review Bar",
			"request": {
				"method": "POST",
				"header": [],
				"body": {
					"mode": "raw",
					"raw": "{\r\n    \"text\": \"top bar, zdravo sa nalqhme s taifata tam\",\r\n    \"rating\": 4.8\r\n}",
					"options": {
						"raw": {
							"language": "json"
						}
					}
				},
				"url": {
					"raw": "http://localhost:5000/bars/4/reviews",
					"protocol": "http",
					"host": [
						"localhost"
					],
					"port": "5000",
					"path": [
						"bars",
						"4",
						"reviews"
					]
				},
				"description": "- rates a bar with given id\n- text is required, length: [25..1000]\n- rating is requred number, `1 <= rating <= 5`"
			},
			"response": []
		},
		{
			"name": "Ingredients (Magician)",
			"protocolProfileBehavior": {
				"disableBodyPruning": true
			},
			"request": {
				"method": "GET",
				"header": [],
				"body": {
					"mode": "raw",
					"raw": "",
					"options": {
						"raw": {
							"language": "json"
						}
					}
				},
				"url": {
					"raw": "http://localhost:5000/ingredients",
					"protocol": "http",
					"host": [
						"localhost"
					],
					"port": "5000",
					"path": [
						"ingredients"
					]
				},
				"description": "- returns a collection of all ingredients, along with how many cocktails use that ingredient"
			},
			"response": []
		},
		{
			"name": "Create Ingredient (Magician)",
			"request": {
				"method": "POST",
				"header": [],
				"body": {
					"mode": "raw",
					"raw": "{\r\n    \"name\": \"voda\"\r\n}",
					"options": {
						"raw": {
							"language": "json"
						}
					}
				},
				"url": {
					"raw": "http://localhost:5000/ingredients",
					"protocol": "http",
					"host": [
						"localhost"
					],
					"port": "5000",
					"path": [
						"ingredients"
					]
				},
				"description": "- creates an ingredient\n- name is required and must be unique"
			},
			"response": []
		},
		{
			"name": "Delete Ingredient (Magician)",
			"request": {
				"method": "DELETE",
				"header": [],
				"body": {
					"mode": "raw",
					"raw": "{\r\n    \"name\": \"rikiq\"\r\n}",
					"options": {
						"raw": {
							"language": "json"
						}
					}
				},
				"url": {
					"raw": "http://localhost:5000/ingredients/4",
					"protocol": "http",
					"host": [
						"localhost"
					],
					"port": "5000",
					"path": [
						"ingredients",
						"4"
					]
				},
				"description": "- deletes ingredient with given `ingredientId`\n- only ingredients not used in cocktails can be deleted"
			},
			"response": []
		},
		{
			"name": "Cocktails",
			"protocolProfileBehavior": {
				"disableBodyPruning": true
			},
			"request": {
				"auth": {
					"type": "noauth"
				},
				"method": "GET",
				"header": [],
				"body": {
					"mode": "raw",
					"raw": "",
					"options": {
						"raw": {
							"language": "json"
						}
					}
				},
				"url": {
					"raw": "http://localhost:5000/cocktails",
					"protocol": "http",
					"host": [
						"localhost"
					],
					"port": "5000",
					"path": [
						"cocktails"
					]
				},
				"description": "returns all cocktails"
			},
			"response": []
		},
		{
			"name": "Cocktail Details",
			"protocolProfileBehavior": {
				"disableBodyPruning": true
			},
			"request": {
				"auth": {
					"type": "noauth"
				},
				"method": "GET",
				"header": [],
				"body": {
					"mode": "raw",
					"raw": "",
					"options": {
						"raw": {
							"language": "json"
						}
					}
				},
				"url": {
					"raw": "http://localhost:5000/cocktails/5",
					"protocol": "http",
					"host": [
						"localhost"
					],
					"port": "5000",
					"path": [
						"cocktails",
						"5"
					]
				},
				"description": "returns detailed information about a cocktail with given `cocktailId`"
			},
			"response": []
		},
		{
			"name": "Create Cocktail (Magician)",
			"request": {
				"method": "POST",
				"header": [],
				"body": {
					"mode": "formdata",
					"formdata": [
						{
							"key": "name",
							"value": "rikiq s limonche (skandalno!!)",
							"type": "text"
						},
						{
							"key": "ingredients",
							"value": "rikiq",
							"type": "text"
						},
						{
							"key": "ingredients",
							"value": "limonche",
							"type": "text"
						},
						{
							"key": "image",
							"type": "file",
							"src": "/D:/img/js.jpg"
						},
						{
							"key": "ingredients",
							"value": "solchica",
							"type": "text"
						}
					]
				},
				"url": {
					"raw": "http://localhost:5000/cocktails",
					"protocol": "http",
					"host": [
						"localhost"
					],
					"port": "5000",
					"path": [
						"cocktails"
					]
				},
				"description": "- creates a cocktail, all fields are required\n- ingredients is a list, at least one existing ingredient must be present"
			},
			"response": []
		},
		{
			"name": "Update Cocktail (Magician)",
			"request": {
				"method": "PUT",
				"header": [],
				"body": {
					"mode": "formdata",
					"formdata": [
						{
							"key": "name",
							"value": "new cocktail name",
							"type": "text",
							"disabled": true
						},
						{
							"key": "image",
							"type": "file",
							"src": "/D:/img/moa.jpg"
						}
					]
				},
				"url": {
					"raw": "http://localhost:5000/cocktails/1",
					"protocol": "http",
					"host": [
						"localhost"
					],
					"port": "5000",
					"path": [
						"cocktails",
						"1"
					]
				},
				"description": "- updates cocktail name\n- or cocktail image\n- does nothing if the request contain neither new name, nor new image"
			},
			"response": []
		},
		{
			"name": "Add Cocktail Ingredients (Magician)",
			"request": {
				"method": "PUT",
				"header": [],
				"body": {
					"mode": "raw",
					"raw": "{\r\n    \"ingredients\": [\"voda\"]\r\n}",
					"options": {
						"raw": {
							"language": "json"
						}
					}
				},
				"url": {
					"raw": "http://localhost:5000/cocktails/3/ingredients",
					"protocol": "http",
					"host": [
						"localhost"
					],
					"port": "5000",
					"path": [
						"cocktails",
						"3",
						"ingredients"
					]
				},
				"description": "- adds additional ingredients to a cocktail\n- ignores ingredients that already belong in the cocktail"
			},
			"response": []
		},
		{
			"name": "Remove Cocktail Ingredients (Magician)",
			"request": {
				"method": "DELETE",
				"header": [],
				"body": {
					"mode": "raw",
					"raw": "{\r\n    \"ingredients\": [\"rikiq\"]\r\n}",
					"options": {
						"raw": {
							"language": "json"
						}
					}
				},
				"url": {
					"raw": "http://localhost:5000/cocktails/3/ingredients",
					"protocol": "http",
					"host": [
						"localhost"
					],
					"port": "5000",
					"path": [
						"cocktails",
						"3",
						"ingredients"
					]
				},
				"description": "- removes cocktail ingredients\n- ignores ingredients not present in the cocktail\n- fails if the cocktail will be left with zero ingredients"
			},
			"response": []
		},
		{
			"name": "Add Favourite Cocktail",
			"request": {
				"method": "PUT",
				"header": [],
				"body": {
					"mode": "raw",
					"raw": "",
					"options": {
						"raw": {
							"language": "json"
						}
					}
				},
				"url": {
					"raw": "http://localhost:5000/users/cocktails/3",
					"protocol": "http",
					"host": [
						"localhost"
					],
					"port": "5000",
					"path": [
						"users",
						"cocktails",
						"3"
					]
				},
				"description": "- user from token adds cocktail `cocktailId` to their collection of favourite cocktails\n- does nothing if already favorited\n- returns 204 status code"
			},
			"response": []
		},
		{
			"name": "Remove Favourite Cocktail",
			"request": {
				"method": "DELETE",
				"header": [],
				"body": {
					"mode": "raw",
					"raw": "",
					"options": {
						"raw": {
							"language": "json"
						}
					}
				},
				"url": {
					"raw": "http://localhost:5000/users/cocktails/2",
					"protocol": "http",
					"host": [
						"localhost"
					],
					"port": "5000",
					"path": [
						"users",
						"cocktails",
						"2"
					]
				},
				"description": "- user from token removes cocktail `cocktailId` from their collection of favourite cocktails\n- does nothing if already not favorited\n- returns 204 status code"
			},
			"response": []
		}
	],
	"auth": {
		"type": "bearer",
		"bearer": [
			{
				"key": "token",
				"value": "{{token}}",
				"type": "string"
			}
		]
	},
	"event": [
		{
			"listen": "prerequest",
			"script": {
				"type": "text/javascript",
				"exec": [
					""
				]
			}
		},
		{
			"listen": "test",
			"script": {
				"type": "text/javascript",
				"exec": [
					""
				]
			}
		}
	],
	"variable": [
		{
			"key": "token",
			"value": "eyJhbGciOiJIUzI1NiIsInR5cCI6IkpXVCJ9.eyJzdWIiOjEsImlhdCI6MTYzNTk1NDg3NiwiZXhwIjoxNjM1OTk4MDc2fQ.cW6udIiFCN2Y4W0Ie5PMAflMIy6sP_RB3iydVxYkX7w"
		}
	]
}